<?xml version="1.0" encoding="utf-8"?>
<!-- Generator: Adobe Illustrator 19.2.1, SVG Export Plug-In . SVG Version: 6.00 Build 0)  -->
<svg version="1.1" id="Capa_1" xmlns="http://www.w3.org/2000/svg" xmlns:xlink="http://www.w3.org/1999/xlink" x="0px" y="0px"
	 viewBox="0 0 1792 1792" style="enable-background:new 0 0 1792 1792;" xml:space="preserve">
<style type="text/css">
	.st0{fill:#FFFFFF;}
</style>
<path class="st0" d="M461.5,1440c20.1,16,30.4,41.8,25.2,67.1l-24.1,125c-5.8,31,11.4,60.8,40.1,71.6l78,29.2l78,29.2
	c28.7,10.9,61.3-1.2,77.4-28.1l61.9-107.2c13.2-22.4,37.8-35.6,63.6-34.4c36.7,1.7,74,0.6,110.6-3.4c25.8-2.9,50.4,8,65.4,29.2
	l71.6,105.5c17.8,25.8,51.6,35,79.7,22.3l75.7-35l75.6-35c28.7-13.2,43.6-44.7,35.6-75.1l-32.1-119.2c-6.9-25.2,1.7-51.6,20.6-68.8
	c27.5-25.2,53.3-52.2,76.2-80.8c16-20.1,41.8-29.8,66.5-25.2l125,24.1c31,5.7,60.8-11.5,71.7-40.1l29.2-78l29.2-78
	c10.9-28.6-1.2-61.4-28.1-77.4l-107.8-60.8c-22.9-12.6-36.1-37.8-35-64.2c1.7-36.7,0.6-73.4-3.4-110.6c-2.9-25.8,8-50.5,29.2-65.4
	l105.5-71.7c25.8-17.8,35-51.6,22.4-79.7l-35-75.6l-35-75.7c-13.2-28.7-44.7-43.6-75.1-35.5l-119.2,32.1
	c-25.2,6.9-52.2-1.7-69.4-21.2c-25.8-29.2-53.9-55-83.7-78.5c-20.6-16.1-31-41.8-25.8-67.7l23.5-123.2c5.7-31-11.5-60.8-40.2-71.7
	l-78-29.2l-78-29.2c-28.6-10.9-61.3,1.2-77.4,28.1l-63.1,109c-13.2,22.3-37.2,35-63,33.8c-37.2-1.7-74.5-0.6-111.8,4
	c-25.8,2.9-51-8-65.4-29.8L678.2,71.2c-17.2-25.2-50.4-35-78.5-23.5l-75.7,35l-74,35.5c-28.6,13.2-43.6,44.7-35,75.1l32.7,120.9
	c6.9,24.6-1.2,51.6-20.6,68.8c-27.5,25.2-53.3,52.7-76.2,82c-16,20-41.8,30.4-67,25.2L160,466.7c-31-5.7-60.8,11.5-71.6,40.2
	l-29.2,77.9l-29.2,78C19,691.4,31,724,58,740.1l108.9,63c22.4,13.2,35,37.3,33.8,63.1c-1.7,37.2-0.6,74.5,4,111.8
	c2.9,25.8-8,51-29.8,65.3l-103.2,69.3c-25.8,17.8-35,51.6-22.4,79.7l35,75.7l35,75.6c13.2,28.7,44.7,43.6,75.1,35.6l120.9-32.7
	c25.2-6.9,51.6,1.7,68.8,20.6C408.2,1393.5,434,1418.2,461.5,1440z M738.4,564.7c183.4-87.2,402.9-9.2,490.1,174.3
	c87.1,183.4,9.2,402.9-174.3,490.1c-183.4,87.1-402.9,9.2-490.1-174.2C477,871.4,554.9,651.8,738.4,564.7z"/>
</svg>
