<?xml version="1.0" encoding="utf-8"?>
<!-- Generator: Adobe Illustrator 19.2.1, SVG Export Plug-In . SVG Version: 6.00 Build 0)  -->
<svg version="1.1" id="Capa_1" xmlns="http://www.w3.org/2000/svg" xmlns:xlink="http://www.w3.org/1999/xlink" x="0px" y="0px"
	 viewBox="0 0 30 30" style="enable-background:new 0 0 30 30;" xml:space="preserve">
<style type="text/css">
	.st0{fill:#FFFFFF;}
</style>
<g>
	<path class="st0" d="M30,15c0-8.3-6.7-15-15-15C6.7,0,0,6.7,0,15c0,8.3,6.7,15,15,15C23.3,30,30,23.3,30,15L30,15z M16.5,15
		c0,0.8-0.6,1.4-1.4,1.4c-0.8,0-1.4-0.6-1.4-1.4V7.6c0-0.8,0.6-1.4,1.4-1.4c0.8,0,1.4,0.6,1.4,1.4V15z M24.7,15
		c0,5.3-4.3,9.7-9.7,9.7c-5.3,0-9.7-4.3-9.7-9.7c0-2.6,1-5,2.8-6.9c0.3-0.3,0.6-0.4,1-0.4c0.4,0,0.7,0.1,1,0.4c0.6,0.6,0.6,1.5,0,2
		c-1.3,1.3-2,3-2,4.8c0,3.8,3.1,6.8,6.8,6.8c3.8,0,6.8-3.1,6.8-6.8c0-1.8-0.7-3.5-2-4.8c-0.6-0.6-0.6-1.5,0-2c0.6-0.6,1.5-0.6,2,0
		C23.7,10,24.7,12.4,24.7,15L24.7,15z M24.7,15"/>
</g>
</svg>
