<?xml version="1.0" encoding="UTF-8"?>
<!DOCTYPE svg PUBLIC "-//W3C//DTD SVG 1.1//EN" "http://www.w3.org/Graphics/SVG/1.1/DTD/svg11.dtd">
<!-- Creator: CorelDRAW X7 -->
<svg xmlns="http://www.w3.org/2000/svg" xml:space="preserve" width="150mm" height="85.2629mm" version="1.1" style="shape-rendering:geometricPrecision; text-rendering:geometricPrecision; image-rendering:optimizeQuality; fill-rule:evenodd; clip-rule:evenodd"
viewBox="0 0 15000 8526"
 xmlns:xlink="http://www.w3.org/1999/xlink">
 <defs>
  <style type="text/css">
   <![CDATA[
    .fil1 {fill:#FEFEFE}
    .fil6 {fill:#848375}
    .fil5 {fill:#B52343}
    .fil0 {fill:#496EB1}
    .fil4 {fill:#848375;fill-rule:nonzero}
    .fil3 {fill:#A5B1DA;fill-rule:nonzero}
    .fil2 {fill:#496EB1;fill-rule:nonzero}
   ]]>
  </style>
 </defs>
 <g id="Capa_x0020_1">
  <metadata id="CorelCorpID_0Corel-Layer"/>
  <g id="_1641403470176">
   <g>
    <polygon class="fil0" points="7476,6081 15000,6081 15000,8526 7476,8526 "/>
    <polygon class="fil1" points="7524,6128 9639,6128 9639,6321 12837,6321 12837,6128 14953,6128 14953,8479 12837,8479 12837,8310 9639,8310 9639,8479 7524,8479 "/>
    <g>
     <polygon class="fil0" points="0,6081 7524,6081 7524,8526 0,8526 "/>
     <path class="fil1" d="M1835 6437c-12,-2 -39,-6 -52,3 0,0 28,12 29,43 0,0 -30,1 -43,-28 0,0 -10,14 -5,42 0,0 -29,4 -46,24 17,21 46,25 46,25 -5,28 5,42 5,42 0,0 19,-28 57,-34l0 0c0,0 6,52 -29,65 -34,14 -56,-16 -61,-23l7 -21c0,-18 -15,-33 -33,-33 -18,0 -33,15 -33,33l7 21 -1 0c0,0 -15,28 -43,28 -28,1 -57,-21 -47,-67l0 -2 1 0c0,0 50,11 57,37 0,0 7,-3 6,-44 0,0 38,-6 43,-24l1 -2c-4,-15 -46,-25 -46,-25 4,-19 -4,-41 -4,-41 -18,29 -45,29 -45,29 2,-30 29,-45 29,-45l-43 -5c-4,-32 -24,-46 -24,-46 0,0 -21,14 -24,46l-44 5c0,0 27,15 29,45 0,0 -27,0 -44,-29 0,0 -9,22 -5,41 0,0 -42,10 -46,25l0 1c6,18 44,24 44,24 -1,41 6,44 6,44 7,-26 57,-36 57,-36l2 0 0 0c3,27 -2,62 -41,68 -29,4 -44,-16 -49,-27l7 -20c0,-19 -15,-34 -34,-34 -18,0 -33,15 -33,34l8 21c-2,3 -16,27 -43,27 -28,1 -57,-21 -47,-67l0 -2c2,1 50,12 57,37 0,0 6,-3 6,-44 0,0 38,-6 43,-24l1 -2c-4,-15 -46,-25 -46,-25 4,-19 -4,-41 -4,-41 -18,29 -45,29 -45,29 2,-30 29,-45 29,-45l-43 -5c-4,-32 -24,-46 -24,-46 0,0 -21,14 -25,46l-43 5c0,0 27,15 29,45 0,0 -27,0 -45,-29 0,0 -8,22 -4,41 0,0 -42,10 -46,25l0 1c6,18 44,24 44,24 -1,41 6,44 6,44 7,-26 57,-36 57,-36l3 0 0 0c3,27 -2,62 -41,68 -30,4 -45,-18 -50,-28l6 -20c0,-18 -15,-33 -33,-33 -18,0 -33,15 -33,33l7 21 -1 0c0,0 -14,28 -42,28 -28,1 -58,-21 -48,-67l0 -2 1 0c0,0 50,11 57,37 0,0 7,-3 6,-44 0,0 38,-6 44,-24l1 -2c-5,-15 -47,-25 -47,-25 4,-19 -4,-41 -4,-41 -17,29 -44,29 -44,29 2,-30 29,-45 29,-45l-44 -5c-3,-32 -24,-46 -24,-46 0,0 -20,14 -24,46l-44 5c0,0 28,15 30,45 0,0 -27,0 -45,-29 0,0 -8,22 -4,41 0,0 -42,10 -46,25l0 1c5,18 43,24 43,24 0,41 6,44 6,44 8,-26 57,-36 57,-36l3 0 0 0c3,27 -3,62 -41,68 -30,4 -45,-18 -50,-28l7 -20c0,-18 -15,-33 -34,-33 -18,0 -33,15 -33,33l6 20c-4,7 -26,38 -61,24 -35,-13 -29,-65 -29,-65l0 0c39,6 58,34 58,34 0,0 10,-14 5,-42 0,0 29,-4 45,-25 -16,-20 -45,-24 -45,-24 5,-28 -5,-42 -5,-42 -14,29 -43,28 -43,28 1,-31 29,-43 29,-43 -14,-9 -41,-5 -52,-3 -55,-88 -138,-31 -138,-31 0,0 106,-19 90,168 0,0 0,70 56,93 51,20 106,-8 116,-15 11,8 41,26 72,26 38,0 72,-28 72,-28 0,0 27,29 70,29 38,0 65,-21 71,-27 10,8 40,26 71,26 38,0 72,-28 72,-28 0,0 28,29 71,29 35,0 61,-19 69,-26 11,8 40,25 70,25 38,0 72,-28 72,-28 0,0 28,29 71,29 38,0 65,-22 70,-27 8,5 64,36 117,15 57,-23 56,-93 56,-93 -16,-187 90,-168 90,-168 0,0 -83,-57 -137,31zm-998 164l-1 -2 1 2 0 0zm164 156l-87 30 87 30 87 -30 -87 -30zm570 0l-87 30 87 30 87 -30 -87 -30zm140 58c16,0 29,-13 29,-29 0,-16 -13,-29 -29,-29 -16,0 -29,13 -29,29 0,16 13,29 29,29zm-285 0c16,0 29,-13 29,-29 0,-16 -13,-29 -29,-29 -16,0 -29,13 -29,29 0,16 13,29 29,29zm-283 0c16,0 29,-13 29,-29 0,-16 -13,-29 -29,-29 -16,0 -29,13 -29,29 0,16 13,29 29,29zm-287 0c16,0 29,-13 29,-29 0,-16 -13,-29 -29,-29 -16,0 -29,13 -29,29 0,16 13,29 29,29zm1004 -3c14,0 26,-11 26,-25 0,-15 -12,-26 -26,-26l-61 0c-14,0 -26,11 -26,26 0,14 12,25 26,25l61 0zm-515 0c14,0 26,-11 26,-25 0,-15 -12,-26 -26,-26l-121 0c-14,0 -25,11 -25,26 0,14 11,25 25,25l121 0zm-572 0c14,0 26,-11 26,-25 0,-15 -12,-26 -26,-26l-62 0c-14,0 -25,11 -25,26 0,14 11,25 25,25l62 0zm1084 -65c15,0 27,-12 27,-27 0,-15 -12,-27 -27,-27l-1142 0c-15,0 -27,12 -27,27 0,15 12,27 27,27l1142 0zm0 135c15,0 27,-12 27,-27 0,-14 -12,-26 -27,-26l-1142 0c-15,0 -27,12 -27,26 0,15 12,27 27,27l1142 0zm-84 991l16 35 38 -4 -23 31 23 31 -38 -4 -16 36 -15 -36 -39 4 23 -31 -23 -31 39 4 15 -35zm0 -479l16 35 38 -4 -23 31 23 31 -38 -4 -16 35 -15 -35 -39 4 23 -31 -23 -31 39 4 15 -35zm1 -469l15 35 39 -4 -23 31 23 32 -39 -5 -15 36 -16 -36 -38 5 22 -32 -22 -31 38 5 16 -36zm-491 1l16 35 38 -4 -23 31 23 31 -38 -4 -16 35 -15 -35 -39 4 23 -31 -23 -31 39 4 15 -35zm-492 -1l16 35 38 -4 -22 31 22 31 -38 -4 -16 35 -15 -35 -38 4 22 -31 -22 -31 38 4 15 -35zm0 469l16 36 38 -5 -22 31 22 32 -38 -5 -16 36 -15 -36 -38 5 22 -32 -22 -31 38 5 15 -36zm0 479l16 36 38 -4 -22 31 22 31 -38 -4 -16 35 -15 -35 -38 4 22 -31 -22 -31 38 4 15 -36zm112 87l759 0c-39,72 -138,150 -379,148 -241,2 -340,-76 -380,-148zm773 -30l-100 1c-1,-12 -9,-28 -9,-28l-23 -42c45,-51 2,-104 2,-104l-28 -49 -50 -143 18 -30c15,-34 -19,-50 -19,-50l-21 1 -21 -11 -11 2c-10,2 -31,-27 -31,-27l-14 0 -16 32c-6,37 20,56 20,56 -7,28 -4,72 -4,72 -13,3 -26,-11 -30,-39 -2,-17 -12,-19 -19,-18l0 -112c123,-12 217,-80 217,-161 0,-90 -114,-162 -255,-162 -141,0 -256,72 -256,162 0,81 93,148 215,160l0 442c-4,45 -43,50 -43,50l-308 -2c-18,-51 -11,-93 -11,-93l3 -760 802 0 3 760c0,0 7,42 -11,93zm-356 -48l0 -213 51 65 8 1c6,97 36,102 36,102 -7,28 4,35 4,35l29 37 -22 10 -8 13 -55 0c0,0 -39,-5 -43,-50zm-37 411c652,5 582,-391 582,-391l-4 -1002 -1157 0 -4 1002c0,0 -69,396 583,391z"/>
     <path class="fil1" d="M2731 7659c-10,88 -33,160 -37,282 -5,105 -20,132 -39,207 -16,63 -69,95 -135,95 -79,0 -128,-85 -130,-173 0,-21 8,-72 13,-92 61,-211 141,-442 217,-691 31,-99 44,-188 113,-188 46,0 58,46 58,84 0,154 -41,302 -60,476zm22 -654c-15,0 -9,-9 -31,-9 -37,0 -64,-38 -64,-76 0,-24 18,-90 46,-102 17,-7 50,-14 73,-14 40,0 78,20 78,66 0,47 -49,135 -102,135zm3897 835c-50,0 -106,-32 -106,-87 0,-41 19,-89 32,-128 6,-19 30,-38 65,-38 54,0 87,51 87,64 0,26 9,62 9,74 0,79 -46,115 -87,115zm212 -825c-33,115 -59,245 -77,365 -10,75 -43,142 -97,142 -31,0 -57,-38 -57,-101 0,-14 0,-32 7,-64 22,-94 24,-135 35,-334 9,-137 51,-255 53,-405 1,-109 78,-202 180,-202 57,0 71,19 95,68 16,35 21,66 18,104 -8,119 -94,212 -157,427zm-692 664l-271 0 0 -628 253 0c154,0 287,102 287,306 0,184 -114,322 -269,322zm-21 -528l-133 0 0 429 133 0c77,0 165,-52 165,-213 0,-172 -104,-216 -165,-216zm-511 528l0 -628 120 0 0 628 -120 0zm-223 0l-156 -247 -83 0 0 247 -116 0 0 -628 200 0c157,0 230,70 230,178 0,91 -62,141 -122,166l192 284 -145 0zm-152 -530l-87 0 0 194 87 0c59,0 104,-44 104,-101 0,-52 -33,-93 -104,-93zm-578 530l-271 0 0 -628 253 0c154,0 287,102 287,306 0,184 -113,322 -269,322zm-21 -528l-133 0 0 429 133 0c77,0 165,-52 165,-213 0,-172 -103,-216 -165,-216zm-441 528l-43 -128 -251 0 -42 128 -132 0 229 -628 141 0 230 628 -132 0zm-168 -501l-93 276 185 0 -92 -276zm-466 501l-66 -440 -163 440 -57 0 -163 -438 -66 438 -121 0 103 -628 121 0 154 410 155 -410 121 0 103 628 -121 0z"/>
    </g>
    <path class="fil2" d="M8219 6969l66 -211 2 0 61 211 -129 0zm-288 243l212 0 30 -97 217 0 29 97 218 0 -248 -682 -206 0 -252 682z"/>
    <path class="fil2" d="M9286 7212l133 0 0 -375 -279 0 0 146 93 0c-11,51 -60,75 -109,75 -128,0 -154,-111 -154,-176 0,-46 -5,-198 140,-198 49,0 91,35 99,85l202 0c-31,-161 -141,-256 -315,-256 -154,0 -336,105 -336,365 0,194 124,351 326,351 74,0 147,-26 194,-86l6 69z"/>
    <polygon class="fil2" points="9620,7212 10195,7212 10195,7037 9830,7037 9830,6952 10152,6952 10152,6790 9830,6790 9830,6705 10185,6705 10185,6530 9620,6530 "/>
    <polygon class="fil2" points="10390,7212 10588,7212 10588,6839 10590,6839 10800,7212 11004,7212 11004,6530 10805,6530 10805,6895 10804,6895 10605,6530 10390,6530 "/>
    <path class="fil2" d="M11845 6784c-18,-171 -121,-270 -309,-271 -210,0 -346,143 -346,358 0,202 125,358 346,358 200,0 312,-147 312,-284l-207 0c-12,64 -40,113 -110,113 -99,0 -131,-95 -131,-187 0,-92 32,-187 131,-187 87,0 106,75 109,100l205 0z"/>
    <polygon class="fil2" points="12032,7212 12242,7212 12242,6530 12032,6530 "/>
    <path class="fil2" d="M12672 6969l66 -211 2 0 61 211 -129 0zm-288 243l211 0 31 -97 217 0 29 97 218 0 -249 -682 -206 0 -251 682z"/>
    <path class="fil3" d="M13232 7212l304 0c238,0 349,-133 349,-342 0,-172 -80,-340 -308,-340l-345 0 0 682zm211 -507l67 0c152,0 165,119 165,162 0,64 -19,170 -150,170l-82 0 0 -332z"/>
    <polygon class="fil3" points="14072,7212 14648,7212 14648,7037 14282,7037 14282,6952 14605,6952 14605,6790 14282,6790 14282,6705 14637,6705 14637,6530 14072,6530 "/>
    <path class="fil2" d="M8219 7875l66 -211 2 0 61 211 -129 0zm-288 243l212 0 30 -97 217 0 29 97 218 0 -248 -682 -206 0 -252 682zm1388 -428c-18,-171 -122,-270 -309,-271 -210,0 -346,143 -346,358 0,202 125,358 346,358 200,0 312,-147 312,-284l-207 0c-12,64 -40,114 -111,114 -98,0 -130,-96 -130,-188 0,-92 32,-187 130,-187 87,0 106,75 110,100l205 0zm250 428l211 0 0 -507 191 0 0 -175 -593 0 0 175 191 0 0 507zm479 0l211 0 0 -682 -211 0 0 682zm900 -682l-216 0 -110 414 -2 0 -112 -414 -212 0 204 682 235 0 213 -682zm38 682l211 0 0 -682 -211 0 0 682zm319 0l304 0c238,0 349,-132 349,-342 0,-172 -80,-340 -308,-340l-345 0 0 682zm210 -507l67 0c152,0 166,119 166,162 0,64 -20,170 -151,170l-82 0 0 -332zm759 264l66 -211 2 0 61 211 -129 0zm-287 243l211 0 30 -97 218 0 28 97 218 0 -248 -682 -206 0 -251 682zm752 0l304 0c238,0 349,-132 349,-342 0,-172 -80,-340 -308,-340l-345 0 0 682zm210 -507l67 0c152,0 166,119 166,162 0,64 -19,170 -150,170l-83 0 0 -332zm534 507l576 0 0 -175 -366 0 0 -85 323 0 0 -162 -323 0 0 -85 355 0 0 -175 -565 0 0 682zm630 -229c2,218 223,246 300,246 152,0 316,-58 316,-236 0,-125 -96,-170 -192,-196 -97,-27 -194,-38 -198,-87 0,-38 47,-45 75,-45 21,0 45,4 62,17 18,11 29,28 25,54l199 0c-6,-166 -137,-223 -285,-223 -140,0 -275,68 -275,226 0,138 123,167 231,198 118,34 147,43 147,78 0,51 -52,63 -87,63 -39,0 -85,-9 -100,-50 -5,-13 -8,-28 -8,-45l-210 0z"/>
   </g>
   <path class="fil4" d="M405 4467c-48,-42 -109,-58 -172,-58 -110,0 -214,62 -214,182 0,187 263,131 263,234 0,40 -45,59 -85,59 -42,0 -83,-20 -108,-53l-88 96c53,49 116,71 188,71 116,0 217,-60 217,-185 0,-196 -258,-130 -258,-232 0,-42 48,-58 83,-58 30,0 69,12 89,37l85 -93zm62 236c0,180 128,295 303,295 175,0 302,-115 302,-295 0,-179 -127,-294 -302,-294 -175,0 -303,115 -303,294zm129 0c0,-104 69,-180 174,-180 105,0 174,76 174,180 0,105 -69,181 -174,181 -105,0 -174,-76 -174,-181zm1022 -212c-48,-61 -127,-82 -189,-82 -175,0 -303,115 -303,294 0,180 128,295 303,295 76,0 156,-31 202,-98l-103 -76c-25,38 -65,60 -115,60 -90,0 -159,-76 -159,-181 0,-104 69,-180 163,-180 46,0 81,16 106,46l95 -78zm79 493l124 0 0 -561 -124 0 0 561zm241 0l395 0 0 -114 -272 0 0 -115 243 0 0 -114 -243 0 0 -104 258 0 0 -114 -381 0 0 561zm494 0l202 0c167,0 315,-98 315,-279 0,-205 -151,-282 -332,-282l-185 0 0 561zm123 -447l73 0c105,0 193,51 193,162 0,127 -87,171 -202,171l-64 0 0 -333zm420 447l136 0 47 -119 218 0 48 119 139 0 -244 -561 -102 0 -242 561zm359 -224l-137 0 68 -174 69 174zm285 224l202 0c167,0 316,-98 316,-279 0,-205 -152,-282 -332,-282l-186 0 0 561zm124 -447l73 0c104,0 192,51 192,162 0,127 -86,171 -201,171l-64 0 0 -333zm820 447l124 0 0 -452 160 0 0 -109 -444 0 0 109 160 0 0 452zm460 -601l104 0 137 -114 -162 0 -79 114zm-109 601l395 0 0 -114 -271 0 0 -115 243 0 0 -114 -243 0 0 -104 257 0 0 -114 -381 0 0 561zm956 -493c-48,-61 -127,-82 -189,-82 -175,0 -303,115 -303,294 0,180 128,295 303,295 76,0 155,-31 202,-98l-103 -76c-25,38 -65,60 -115,60 -90,0 -159,-76 -159,-181 0,-104 69,-180 163,-180 46,0 81,16 106,46l95 -78zm81 493l123 0 0 -399 2 0 244 399 162 0 0 -561 -124 0 0 390 -1 0 -239 -390 -167 0 0 561zm643 0l124 0 0 -561 -124 0 0 561zm698 -493c-48,-61 -127,-82 -189,-82 -175,0 -303,115 -303,294 0,180 128,295 303,295 76,0 156,-31 202,-98l-103 -76c-25,38 -65,60 -115,60 -90,0 -159,-76 -159,-181 0,-104 69,-180 163,-180 46,0 81,16 106,46l95 -78zm23 493l136 0 47 -119 217 0 49 119 139 0 -244 -561 -102 0 -242 561zm359 -224l-137 0 68 -174 69 174zm520 224l202 0c167,0 315,-98 315,-279 0,-205 -152,-282 -332,-282l-185 0 0 561zm123 -447l73 0c105,0 192,51 192,162 0,127 -86,171 -201,171l-64 0 0 -333zm482 447l395 0 0 -114 -271 0 0 -115 243 0 0 -114 -243 0 0 -104 257 0 0 -114 -381 0 0 561zm837 0l124 0 0 -452 160 0 0 -109 -444 0 0 109 160 0 0 452zm346 0l124 0 0 -224 61 0 117 224 148 0 -143 -237c80,-14 122,-75 122,-154 0,-130 -97,-170 -212,-170l-217 0 0 561zm124 -457l81 0c45,0 95,9 95,65 0,61 -58,63 -103,63l-73 0 0 -128zm332 457l136 0 46 -119 218 0 48 119 140 0 -244 -561 -102 0 -242 561zm358 -224l-137 0 68 -174 69 174zm286 224l124 0 0 -430 1 0 142 430 94 0 147 -430 2 0 0 430 123 0 0 -561 -186 0 -129 366 -2 0 -129 -366 -187 0 0 561zm746 0l123 0 0 -561 -123 0 0 561zm344 0l124 0 0 -452 160 0 0 -109 -444 0 0 109 160 0 0 452zm216 0l136 0 47 -119 217 0 49 119 139 0 -244 -561 -102 0 -242 561zm358 -224l-137 0 69 -174 68 174zm748 -269c-48,-61 -127,-82 -189,-82 -175,0 -303,115 -303,294 0,180 128,295 303,295 76,0 156,-31 202,-98l-103 -76c-25,38 -65,60 -115,60 -90,0 -159,-76 -159,-181 0,-104 69,-180 163,-180 46,0 81,16 106,46l95 -78zm79 493l124 0 0 -561 -124 0 0 561zm429 -601l105 0 137 -114 -162 0 -80 114zm-223 320c0,180 127,295 302,295 175,0 303,-115 303,-295 0,-179 -128,-294 -303,-294 -175,0 -302,115 -302,294zm128 0c0,-104 69,-180 174,-180 106,0 175,76 175,180 0,105 -69,181 -175,181 -105,0 -174,-76 -174,-181zm561 281l123 0 0 -399 2 0 245 399 161 0 0 -561 -123 0 0 390 -2 0 -238 -390 -168 0 0 561z"/>
   <g>
    <path class="fil5" d="M6252 2242c0,622 -538,1201 -1201,1201l-1361 0c-264,0 -479,-214 -479,-478 0,-264 215,-479 479,-479l1363 0c132,0 240,-107 240,-240l-1 -1046c0,-621 537,-1200 1200,-1200l748 0 0 957 -749 0c-133,0 -240,107 -240,239l1 1046z"/>
    <path class="fil6" d="M7240 0c-264,0 -478,214 -478,478 0,264 214,478 478,479l547 0 0 2008c0,263 215,478 478,478 262,0 478,-217 478,-478l0 -2008 1074 0 0 2008c0,263 215,478 478,478 262,0 478,-217 478,-478l0 -2008 537 0c263,0 479,-216 479,-479 0,-262 -217,-478 -479,-478l-4070 0z"/>
   </g>
  </g>
 </g>
</svg>
